[
	{
		"name": "Samsung Galaxy S7",
		"screenshotResizeTo": [856,1516],
		"screenshotPutAtXY": [95,248],
		"frameFile": "s7_frame.png",
		"screenGlare": "s7_glass.png"
	},
	{
		"name": "Samsung Galaxy S7 nobrand",
		"screenshotResizeTo": [856,1516],
		"screenshotPutAtXY": [95,248],
		"frameFile": "s7nobrand_frame.png",
		"screenGlare": "s7_glass.png"
	},
	{
		"name": "Nexus 7",
		"screenshotResizeTo": [745,1192],
		"screenshotPutAtXY": [227,303],
		"frameFile": "nexus7.png"
	},
	{
		"name": "LG GPad 8",
		"screenshotResizeTo": [465,743],
		"screenshotPutAtXY": [46,95],
		"frameFile": "gpad8_frame.png",
		"screenGlare": "gpad8_glass.png"
	},
	{
		"name": "LG GPad 8 nobrand",
		"screenshotResizeTo": [465,743],
		"screenshotPutAtXY": [46,95],
		"frameFile": "gpad8nobrand_frame.png",
		"screenGlare": "gpad8_glass.png"
	},
	{
		"name": "Huawei Mediapad M2 8",
		"screenshotResizeTo": [585,910],
		"screenshotPutAtXY": [96,136],
		"frameFile": "mediapadm2_frame.png",
		"screenGlare": "mediapadm2_glass.png"
	},
	{
		"name": "Huawei Mediapad M2 8 nobrand",
		"screenshotResizeTo": [585,910],
		"screenshotPutAtXY": [96,136],
		"frameFile": "mediapadm2nobrand_frame.png",
		"screenGlare": "mediapadm2_glass.png"
	},
	{
		"name": "Nexus 5",
		"screenshotResizeTo": [768,1365],
		"screenshotPutAtXY": [155,235],
		"frameFile": "nexus5_frame.png",
		"screenGlare": "nexus5_glass.png"
	}
]
